Justin Dollman - Notes on Sentiment Dictionaries
…
These eight emotions below negative and positive were theorized by Bob Plutchik to be fundamental, or something.8 I’m going to ignore those emotions in this subsection. I’m also not going to talk too much about this dictionary, because it’s superseded by the real-valued its successors, the NRC-EIL and NRC-VAD (below).

Before I leave this lexicon, though, one bizarre thing about it: 81 words are both positive and negative (???)

get_sentiments('nrc') %>% 
  filter(sentiment %in% c('negative', 'positive')) %>% 
  add_count(word) %>% 
  filter(n > 1) %>% select(-n)

# A tibble: 162 × 2
   word       sentiment
   <chr>      <chr>    
 1 abundance  negative 
 2 abundance  positive 
 3 armed      negative 
 4 armed      positive 
 5 balm       negative 
 6 balm       positive 
 7 boast      negative 
 8 boast      positive 
 9 boisterous negative 
10 boisterous positive 
# ℹ 152 more rows
…
